game_state.vcd
$date
	Thu Nov 17 10:17:18 2022
$end
$version
	Icarus Verilog
$end
$timescale
	1ps
$end
$scope module game_state_tb $end
$var wire 12 ! pixel_out [11:0] $end
$var reg 1 " clk $end
$var reg 11 # hcount_in [10:0] $end
$var reg 2 $ rotate_in [1:0] $end
$var reg 1 % rst $end
$var reg 10 & vcount_in [9:0] $end
$scope module uut $end
$var wire 1 " clk $end
$var wire 11 ' hcount_in [10:0] $end
$var wire 2 ( rotate_in [1:0] $end
$var wire 1 % rst $end
$var wire 4 ) turn_out [3:0] $end
$var wire 10 * vcount_in [9:0] $end
$var wire 12 + menu_pixel_out [11:0] $end
$var wire 1 , menu_finish_out $end
$var wire 1 - menu_busy_out $end
$var wire 12 . enemy_pixel_out [11:0] $end
$var wire 1 / enemy_finish_out $end
$var wire 1 0 enemy_busy_out $end
$var reg 12 1 pixel_out [11:0] $end
$var reg 4 2 state_out [3:0] $end
$scope module en $end
$var wire 1 0 busy_out $end
$var wire 1 " clk $end
$var wire 11 3 hcount_in [10:0] $end
$var wire 2 4 rotate_in [1:0] $end
$var wire 1 % rst $end
$var wire 4 5 state_in [3:0] $end
$var wire 4 6 turn_in [3:0] $end
$var wire 10 7 vcount_in [9:0] $end
$var wire 12 8 shield_out [11:0] $end
$var wire 1 9 pattern_valid_1 $end
$var wire 12 : frame_top_pixel [11:0] $end
$var wire 1 ; frame_top_out $end
$var wire 12 < frame_right_pixel [11:0] $end
$var wire 1 = frame_right_out $end
$var wire 12 > frame_left_pixel [11:0] $end
$var wire 1 ? frame_left_out $end
$var wire 12 @ frame_bottom_pixel [11:0] $end
$var wire 1 A frame_bottom_out $end
$var wire 24 B arrow_valid_out [23:0] $end
$var wire 12 C arrow_out_3 [11:0] $end
$var wire 12 D arrow_out_2 [11:0] $end
$var wire 12 E arrow_out_1 [11:0] $end
$var reg 7 F arrow_count_first [6:0] $end
$var reg 24 G arrow_valid_in [23:0] $end
$var reg 1 H busy_out_buffer $end
$var reg 1 / finished_out $end
$var reg 12 I green_heart_pixel_out [11:0] $end
$var reg 24 J old_arrow_valid_out [23:0] $end
$var reg 4 K old_state_in [3:0] $end
$var reg 1 L pattern_ended $end
$var reg 12 M pixel_out [11:0] $end
$var reg 32 N timing_count [31:0] $end
$scope module arrow1 $end
$var wire 1 " clk $end
$var wire 2 O direction_in [1:0] $end
$var wire 11 P hcount_in [10:0] $end
$var wire 1 Q inversed_in $end
$var wire 1 % rst $end
$var wire 3 R speed_in [2:0] $end
$var wire 1 S valid_in $end
$var wire 10 T vcount_in [9:0] $end
$var wire 1 U valid_out $end
$var wire 12 V pixel_out [11:0] $end
$var reg 1 W is_hit $end
$var reg 1 X old_valid_in $end
$var reg 11 Y x [10:0] $end
$var reg 10 Z y [9:0] $end
$upscope $end
$scope module arrow2 $end
$var wire 1 " clk $end
$var wire 2 [ direction_in [1:0] $end
$var wire 11 \ hcount_in [10:0] $end
$var wire 1 ] inversed_in $end
$var wire 1 % rst $end
$var wire 3 ^ speed_in [2:0] $end
$var wire 1 _ valid_in $end
$var wire 10 ` vcount_in [9:0] $end
$var wire 1 a valid_out $end
$var wire 12 b pixel_out [11:0] $end
$var reg 1 c is_hit $end
$var reg 1 d old_valid_in $end
$var reg 11 e x [10:0] $end
$var reg 10 f y [9:0] $end
$upscope $end
$scope module arrow3 $end
$var wire 1 " clk $end
$var wire 2 g direction_in [1:0] $end
$var wire 11 h hcount_in [10:0] $end
$var wire 1 i inversed_in $end
$var wire 1 % rst $end
$var wire 3 j speed_in [2:0] $end
$var wire 1 k valid_in $end
$var wire 10 l vcount_in [9:0] $end
$var wire 1 m valid_out $end
$var wire 12 n pixel_out [11:0] $end
$var reg 1 o is_hit $end
$var reg 1 p old_valid_in $end
$var reg 11 q x [10:0] $end
$var reg 10 r y [9:0] $end
$upscope $end
$scope module frame_bottom $end
$var wire 11 s hcount_in [10:0] $end
$var wire 1 t is_fixed $end
$var wire 10 u vcount_in [9:0] $end
$var wire 11 v x_in [10:0] $end
$var wire 10 w y_in [9:0] $end
$var wire 12 x pixel_out [11:0] $end
$var wire 1 A in_sprite $end
$var reg 1 A in_sprite_buffer $end
$upscope $end
$scope module frame_left $end
$var wire 11 y hcount_in [10:0] $end
$var wire 1 z is_fixed $end
$var wire 10 { vcount_in [9:0] $end
$var wire 11 | x_in [10:0] $end
$var wire 10 } y_in [9:0] $end
$var wire 12 ~ pixel_out [11:0] $end
$var wire 1 ? in_sprite $end
$var reg 1 ? in_sprite_buffer $end
$upscope $end
$scope module frame_right $end
$var wire 11 !" hcount_in [10:0] $end
$var wire 1 "" is_fixed $end
$var wire 10 #" vcount_in [9:0] $end
$var wire 11 $" x_in [10:0] $end
$var wire 10 %" y_in [9:0] $end
$var wire 12 &" pixel_out [11:0] $end
$var wire 1 = in_sprite $end
$var reg 1 = in_sprite_buffer $end
$upscope $end
$scope module frame_top $end
$var wire 11 '" hcount_in [10:0] $end
$var wire 1 (" is_fixed $end
$var wire 10 )" vcount_in [9:0] $end
$var wire 11 *" x_in [10:0] $end
$var wire 10 +" y_in [9:0] $end
$var wire 12 ," pixel_out [11:0] $end
$var wire 1 ; in_sprite $end
$var reg 1 ; in_sprite_buffer $end
$upscope $end
$scope module pattern1 $end
$var wire 4 -" turn_in [3:0] $end
$var reg 48 ." direction [47:0] $end
$var reg 24 /" inversed [23:0] $end
$var reg 72 0" speed [71:0] $end
$var reg 72 1" timing [71:0] $end
$var reg 1 9 valid_out $end
$upscope $end
$scope module player_shield $end
$var wire 11 2" hcount_in [10:0] $end
$var wire 1 3" in_sprite $end
$var wire 2 4" rotate_in [1:0] $end
$var wire 10 5" vcount_in [9:0] $end
$var wire 12 6" pixel_out [11:0] $end
$var reg 10 7" height [9:0] $end
$var reg 11 8" width [10:0] $end
$var reg 11 9" x [10:0] $end
$var reg 10 :" y [9:0] $end
$upscope $end
$upscope $end
$scope module mn $end
$var wire 1 - busy_out $end
$var wire 1 " clk $end
$var wire 11 ;" hcount_in [10:0] $end
$var wire 1 % rst $end
$var wire 4 <" state_in [3:0] $end
$var wire 10 =" vcount_in [9:0] $end
$var wire 12 >" frame_top_pixel [11:0] $end
$var wire 1 ?" frame_top_out $end
$var wire 12 @" frame_right_pixel [11:0] $end
$var wire 1 A" frame_right_out $end
$var wire 12 B" frame_left_pixel [11:0] $end
$var wire 1 C" frame_left_out $end
$var wire 12 D" frame_bottom_pixel [11:0] $end
$var wire 1 E" frame_bottom_out $end
$var reg 1 F" busy_out_buffer $end
$var reg 1 , finished_out $end
$var reg 4 G" old_state_in [3:0] $end
$var reg 12 H" pixel_out [11:0] $end
$var reg 32 I" timing_count [31:0] $end
$scope module frame_bottom $end
$var wire 11 J" hcount_in [10:0] $end
$var wire 1 K" is_fixed $end
$var wire 10 L" vcount_in [9:0] $end
$var wire 11 M" x_in [10:0] $end
$var wire 10 N" y_in [9:0] $end
$var wire 12 O" pixel_out [11:0] $end
$var wire 1 E" in_sprite $end
$var reg 1 E" in_sprite_buffer $end
$upscope $end
$scope module frame_left $end
$var wire 11 P" hcount_in [10:0] $end
$var wire 1 Q" is_fixed $end
$var wire 10 R" vcount_in [9:0] $end
$var wire 11 S" x_in [10:0] $end
$var wire 10 T" y_in [9:0] $end
$var wire 12 U" pixel_out [11:0] $end
$var wire 1 C" in_sprite $end
$var reg 1 C" in_sprite_buffer $end
$upscope $end
$scope module frame_right $end
$var wire 11 V" hcount_in [10:0] $end
$var wire 1 W" is_fixed $end
$var wire 10 X" vcount_in [9:0] $end
$var wire 11 Y" x_in [10:0] $end
$var wire 10 Z" y_in [9:0] $end
$var wire 12 [" pixel_out [11:0] $end
$var wire 1 A" in_sprite $end
$var reg 1 A" in_sprite_buffer $end
$upscope $end
$scope module frame_top $end
$var wire 11 \" hcount_in [10:0] $end
$var wire 1 ]" is_fixed $end
$var wire 10 ^" vcount_in [9:0] $end
$var wire 11 _" x_in [10:0] $end
$var wire 10 `" y_in [9:0] $end
$var wire 12 a" pixel_out [11:0] $end
$var wire 1 ?" in_sprite $end
$var reg 1 ?" in_sprite_buffer $end
$upscope $end
$upscope $end
$upscope $end
$scope begin $ivl_for_loop0 $end
$var integer 32 b" i [31:0] $end
$upscope $end
$upscope $end
$enddefinitions $end
#0
$dumpvars
b0 b"
bx a"
b0 `"
b0 _"
bx ^"
1]"
bx \"
bx ["
b0 Z"
b0 Y"
bx X"
1W"
bx V"
bx U"
b0 T"
b0 S"
bx R"
1Q"
bx P"
bx O"
b0 N"
b0 M"
bx L"
1K"
bx J"
bx I"
bx H"
bx G"
xF"
xE"
bx D"
xC"
bx B"
xA"
bx @"
x?"
bx >"
bx ="
bx <"
bx ;"
bx :"
bx 9"
bx 8"
bx 7"
bx 6"
bx 5"
bx 4"
x3"
bx 2"
b1001001 1"
b1001001001001001001001001001001001001001001001001001001001001001001001 0"
b0 /"
b0 ."
b0 -"
bx ,"
b0 +"
b0 *"
bx )"
1("
bx '"
bx &"
b0 %"
b0 $"
bx #"
1""
bx !"
bx ~
b0 }
b0 |
bx {
1z
bx y
bx x
b0 w
b0 v
bx u
1t
bx s
bx r
bx q
xp
xo
bx00000000 n
xm
bx l
xk
b0 j
0i
bx h
b10 g
bx f
bx e
xd
xc
bx00000000 b
xa
bx `
x_
b0 ^
0]
bx \
b1 [
bx Z
bx Y
xX
xW
bx00000000 V
xU
bx T
xS
b0 R
0Q
bx P
b0 O
bx N
bx M
xL
bx K
bx J
bx I
xH
bx G
bx F
bx00000000 E
bx00000000 D
bx00000000 C
bzxxx B
xA
bx @
x?
bx >
x=
bx <
x;
bx :
19
bx 8
bx 7
b0 6
bx 5
bx 4
bx 3
bx 2
bx 1
x0
x/
bx .
x-
x,
bx +
bx *
b0 )
bx (
bx '
bx &
1%
bx $
bx #
0"
bx !
$end
#10000
0L
b0 F
b1010 K
b0 N
0/
00
0H
0-
0F"
0,
b1000 2
b1000 5
b1000 <"
b1010 G"
1"
#20000
b0 8
b0 6"
b0 !
b0 1
03"
b0 .
b0 M
b0 @
b0 x
b0 >
b0 ~
b0 <
b0 &"
b0 :
b0 ,"
b0 D"
b0 O"
b0 B"
b0 U"
b0 @"
b0 ["
b0 >"
b0 a"
b100 7"
b10000000 8"
b101000000 :"
b111000000 9"
0A
0?
0=
0;
0E"
0C"
0A"
0?"
0"
b0 $
b0 (
b0 4
b0 4"
b0 &
b0 *
b0 7
b0 T
b0 `
b0 l
b0 u
b0 {
b0 #"
b0 )"
b0 5"
b0 ="
b0 L"
b0 R"
b0 X"
b0 ^"
b0 #
b0 '
b0 3
b0 P
b0 \
b0 h
b0 s
b0 y
b0 !"
b0 '"
b0 2"
b0 ;"
b0 J"
b0 P"
b0 V"
b0 \"
0%
#30000
b0 E
b0 V
b0 D
b0 b
b0 C
b0 n
0U
0a
bz000 B
0m
bx !
bx 1
0S
0_
0k
bx .
bx M
b1000 G"
b1000 K
bzxxx J
b0 G
10
1H
1"
#40000
0"
b1 b"
#50000
0X
0d
0p
bz000 J
b1 N
1"
#60000
0"
b10 b"
#70000
b10 N
1"
#80000
0"
b11 b"
#90000
b11 N
1"
#100000
0"
b100 b"
#110000
b100 N
1"
#120000
0"
b101 b"
#130000
b101 N
1"
#140000
0"
b110 b"
#150000
b110 N
1"
#160000
0"
b111 b"
#170000
b111 N
1"
#180000
0"
b1000 b"
#190000
b1000 N
1"
#200000
0"
b1001 b"
#210000
b1001 N
1"
#220000
0"
b1010 b"
#230000
b1010 N
1"
#240000
0"
b1011 b"
#250000
b1011 N
1"
#260000
0"
b1100 b"
#270000
b1100 N
1"
#280000
0"
b1101 b"
#290000
b1101 N
1"
#300000
0"
b1110 b"
#310000
b1110 N
1"
#320000
0"
b1111 b"
#330000
b1111 N
1"
#340000
0"
b10000 b"
#350000
b10000 N
1"
#360000
0"
b10001 b"
#370000
b10001 N
1"
#380000
0"
b10010 b"
#390000
b10010 N
1"
#400000
0"
b10011 b"
#410000
b10011 N
1"
#420000
0"
b10100 b"
#430000
b10100 N
1"
#440000
0"
b10101 b"
#450000
b10101 N
1"
#460000
0"
b10110 b"
#470000
b10110 N
1"
#480000
0"
b10111 b"
#490000
b10111 N
1"
#500000
0"
b11000 b"
#510000
b11000 N
1"
#520000
0"
b11001 b"
#530000
b11001 N
1"
#540000
0"
b11010 b"
#550000
b11010 N
1"
#560000
0"
b11011 b"
#570000
b11011 N
1"
#580000
0"
b11100 b"
#590000
b11100 N
1"
#600000
0"
b11101 b"
#610000
b11101 N
1"
#620000
0"
b11110 b"
#630000
b11110 N
1"
#640000
0"
b11111 b"
#650000
bx00000000 E
bx00000000 V
bz00x B
xU
1S
b11 F
b1 G
b0 N
1"
#660000
0"
b100000 b"
#670000
b0 E
b0 V
bz000 B
0U
bz00x J
b1 N
1X
0W
b0 Z
b1000000000 Y
1"
#680000
0"
b100001 b"
#690000
b100 Z
bz000 J
b10 N
1"
#700000
0"
b100010 b"
#710000
b11 N
b1000 Z
1"
#720000
0"
b100011 b"
#730000
b1100 Z
b100 N
1"
#740000
0"
b100100 b"
#750000
b101 N
b10000 Z
1"
#760000
0"
b100101 b"
#770000
b10100 Z
b110 N
1"
#780000
0"
b100110 b"
#790000
b111 N
b11000 Z
1"
#800000
0"
b100111 b"
#810000
b11100 Z
b1000 N
1"
#820000
0"
b101000 b"
#830000
b1001 N
b100000 Z
1"
#840000
0"
b101001 b"
#850000
b100100 Z
b1010 N
1"
#860000
0"
b101010 b"
#870000
b1011 N
b101000 Z
1"
#880000
0"
b101011 b"
#890000
b101100 Z
b1100 N
1"
#900000
0"
b101100 b"
#910000
b1101 N
b110000 Z
1"
#920000
0"
b101101 b"
#930000
b110100 Z
b1110 N
1"
#940000
0"
b101110 b"
#950000
b1111 N
b111000 Z
1"
#960000
0"
b101111 b"
#970000
b111100 Z
b10000 N
1"
#980000
0"
b110000 b"
#990000
b10001 N
b1000000 Z
1"
#1000000
0"
b110001 b"
#1010000
b1000100 Z
b10010 N
1"
#1020000
0"
b110010 b"
#1030000
b10011 N
b1001000 Z
1"
#1040000
0"
b110011 b"
#1050000
b1001100 Z
b10100 N
1"
#1060000
0"
b110100 b"
#1070000
b10101 N
b1010000 Z
1"
#1080000
0"
b110101 b"
#1090000
b1010100 Z
b10110 N
1"
#1100000
0"
b110110 b"
#1110000
b10111 N
b1011000 Z
1"
#1120000
0"
b110111 b"
#1130000
b1011100 Z
b11000 N
1"
#1140000
0"
b111000 b"
#1150000
b11001 N
b1100000 Z
1"
#1160000
0"
b111001 b"
#1170000
b1100100 Z
b11010 N
1"
#1180000
0"
b111010 b"
#1190000
b11011 N
b1101000 Z
1"
#1200000
0"
b111011 b"
#1210000
b1101100 Z
b11100 N
1"
#1220000
0"
b111100 b"
#1230000
b11101 N
b1110000 Z
1"
#1240000
0"
b111101 b"
#1250000
b1110100 Z
b11110 N
1"
#1260000
0"
b111110 b"
#1270000
bx00000000 D
bx00000000 b
bz0x0 B
xa
1_
b110 F
b11 G
b0 N
b1111000 Z
1"
#1280000
0"
b111111 b"
#1290000
b0 D
b0 b
bz000 B
0a
b1111100 Z
1d
0c
b1011010000 f
b1000000000 e
bz0x0 J
b1 N
1"
#1300000
0"
b1000000 b"
#1310000
bz000 J
b10 N
b1011001100 f
b10000000 Z
1"
#1320000
0"
b1000001 b"
#1330000
b10000100 Z
b1011001000 f
b11 N
1"
#1340000
0"
b1000010 b"
#1350000
b100 N
b1011000100 f
b10001000 Z
1"
#1360000
0"
b1000011 b"
#1370000
b10001100 Z
b1011000000 f
b101 N
1"
#1380000
0"
b1000100 b"
#1390000
b110 N
b1010111100 f
b10010000 Z
1"
#1400000
0"
b1000101 b"
#1410000
b10010100 Z
b1010111000 f
b111 N
1"
#1420000
0"
b1000110 b"
#1430000
b1000 N
b1010110100 f
b10011000 Z
1"
#1440000
0"
b1000111 b"
#1450000
b10011100 Z
b1010110000 f
b1001 N
1"
#1460000
0"
b1001000 b"
#1470000
b1010 N
b1010101100 f
b10100000 Z
1"
#1480000
0"
b1001001 b"
#1490000
b10100100 Z
b1010101000 f
b1011 N
1"
#1500000
0"
b1001010 b"
#1510000
b1100 N
b1010100100 f
b10101000 Z
1"
#1520000
0"
b1001011 b"
#1530000
b10101100 Z
b1010100000 f
b1101 N
1"
#1540000
0"
b1001100 b"
#1550000
b1110 N
b1010011100 f
b10110000 Z
1"
#1560000
0"
b1001101 b"
#1570000
b10110100 Z
b1010011000 f
b1111 N
1"
#1580000
0"
b1001110 b"
#1590000
b10000 N
b1010010100 f
b10111000 Z
1"
#1600000
0"
b1001111 b"
#1610000
b10111100 Z
b1010010000 f
b10001 N
1"
#1620000
0"
b1010000 b"
#1630000
b10010 N
b1010001100 f
b11000000 Z
1"
#1640000
0"
b1010001 b"
#1650000
b11000100 Z
b1010001000 f
b10011 N
1"
#1660000
0"
b1010010 b"
#1670000
b10100 N
b1010000100 f
b11001000 Z
1"
#1680000
0"
b1010011 b"
#1690000
b11001100 Z
b1010000000 f
b10101 N
1"
#1700000
0"
b1010100 b"
#1710000
b10110 N
b1001111100 f
b11010000 Z
1"
#1720000
0"
b1010101 b"
#1730000
b11010100 Z
b1001111000 f
b10111 N
1"
#1740000
0"
b1010110 b"
#1750000
b11000 N
b1001110100 f
b11011000 Z
1"
#1760000
0"
b1010111 b"
#1770000
b11011100 Z
b1001110000 f
b11001 N
1"
#1780000
0"
b1011000 b"
#1790000
b11010 N
b1001101100 f
b11100000 Z
1"
#1800000
0"
b1011001 b"
#1810000
b11100100 Z
b1001101000 f
b11011 N
1"
#1820000
0"
b1011010 b"
#1830000
b11100 N
b1001100100 f
b11101000 Z
1"
#1840000
0"
b1011011 b"
#1850000
b11101100 Z
b1001100000 f
b11101 N
1"
#1860000
0"
b1011100 b"
#1870000
b11110 N
b1001011100 f
b11110000 Z
1"
#1880000
0"
b1011101 b"
#1890000
bx00000000 C
bx00000000 n
bzx00 B
xm
1k
b11110100 Z
b1001011000 f
b1001 F
b111 G
b0 N
1"
#1900000
0"
b1011110 b"
#1910000
b0 C
b0 n
bz000 B
0m
bzx00 J
b1 N
1p
0o
b110000000 r
b0 q
b1001010100 f
b11111000 Z
1"
#1920000
0"
b1011111 b"
#1930000
b11111100 Z
b1001010000 f
b100 q
bz000 J
b10 N
1"
#1940000
0"
b1100000 b"
#1950000
b11 N
b1000 q
b1001001100 f
b100000000 Z
1"
#1960000
0"
b1100001 b"
#1970000
b100000100 Z
b1001001000 f
b1100 q
b100 N
1"
#1980000
0"
b1100010 b"
#1990000
b101 N
b10000 q
b1001000100 f
b100001000 Z
1"
#2000000
0"
b1100011 b"
#2010000
b100001100 Z
b1001000000 f
b10100 q
b110 N
1"
#2020000
0"
b1100100 b"
#2030000
b111 N
b11000 q
b1000111100 f
b100010000 Z
1"
#2040000
0"
b1100101 b"
#2050000
b100010100 Z
b1000111000 f
b11100 q
b1000 N
1"
#2060000
0"
b1100110 b"
#2070000
b1001 N
b100000 q
b1000110100 f
b100011000 Z
1"
#2080000
0"
b1100111 b"
#2090000
b100011100 Z
b1000110000 f
b100100 q
b1010 N
1"
#2100000
0"
b1101000 b"
#2110000
b1011 N
b101000 q
b1000101100 f
b100100000 Z
1"
#2120000
0"
b1101001 b"
#2130000
b100100100 Z
b1000101000 f
b101100 q
b1100 N
1"
#2140000
0"
b1101010 b"
#2150000
b1101 N
b110000 q
b1000100100 f
b100101000 Z
1"
#2160000
0"
b1101011 b"
#2170000
b100101100 Z
b1000100000 f
b110100 q
b1110 N
1"
#2180000
0"
b1101100 b"
#2190000
b1111 N
b111000 q
b1000011100 f
b100110000 Z
1"
#2200000
0"
b1101101 b"
#2210000
b100110100 Z
b1000011000 f
b111100 q
b10000 N
1"
#2220000
0"
b1101110 b"
#2230000
b10001 N
b1000000 q
b1000010100 f
b100111000 Z
1"
#2240000
0"
b1101111 b"
#2250000
b100111100 Z
b1000010000 f
b1000100 q
b10010 N
1"
#2260000
0"
b1110000 b"
#2270000
b10011 N
b1001000 q
b1000001100 f
b101000000 Z
1"
#2280000
0"
b1110001 b"
#2290000
b101000100 Z
b1000001000 f
b1001100 q
b10100 N
1"
#2300000
0"
b1110010 b"
#2310000
b10101 N
b1010000 q
b1000000100 f
b101001000 Z
1"
#2320000
0"
b1110011 b"
#2330000
b101001100 Z
b1000000000 f
b1010100 q
b10110 N
1"
#2340000
0"
b1110100 b"
#2350000
b10111 N
b1011000 q
b111111100 f
b101010000 Z
1"
#2360000
0"
b1110101 b"
#2370000
b101010100 Z
b111111000 f
b1011100 q
b11000 N
1"
#2380000
0"
b1110110 b"
#2390000
b11001 N
b1100000 q
b111110100 f
b101011000 Z
1"
#2400000
0"
b1110111 b"
#2410000
b101011100 Z
b111110000 f
b1100100 q
b11010 N
1"
#2420000
0"
b1111000 b"
#2430000
b11011 N
b1101000 q
b111101100 f
b101100000 Z
1"
#2440000
0"
b1111001 b"
#2450000
b101100100 Z
b111101000 f
b1101100 q
b11100 N
1"
#2460000
0"
b1111010 b"
#2470000
b11101 N
b1110000 q
b111100100 f
b101101000 Z
1"
#2480000
0"
b1111011 b"
#2490000
b101101100 Z
b111100000 f
b1110100 q
b11110 N
1"
#2500000
0"
b1111100 b"
#2510000
b1100 F
b1111 G
b0 N
b1111000 q
b111011100 f
b101110000 Z
1"
#2520000
0"
b1111101 b"
#2530000
b101110100 Z
b111011000 f
b1111100 q
b1 N
1"
#2540000
0"
b1111110 b"
#2550000
b10 N
b10000000 q
b111010100 f
b101111000 Z
1"
#2560000
0"
b1111111 b"
#2570000
b101111100 Z
b111010000 f
b10000100 q
b11 N
1"
#2580000
0"
b10000000 b"
#2590000
b100 N
b10001000 q
b111001100 f
b110000000 Z
1"
#2600000
0"
b10000001 b"
#2610000
1W
b110000100 Z
b111001000 f
b10001100 q
b101 N
1"
#2620000
0"
b10000010 b"
#2630000
b110 N
b10010000 q
b111000100 f
b110001000 Z
1"
#2640000
0"
b10000011 b"
#2650000
b110001100 Z
b111000000 f
b10010100 q
b111 N
1"
#2660000
0"
b10000100 b"
#2670000
b1000 N
b10011000 q
b110111100 f
b110010000 Z
1"
#2680000
0"
b10000101 b"
#2690000
b110010100 Z
b110111000 f
b10011100 q
b1001 N
1"
#2700000
0"
b10000110 b"
#2710000
b1010 N
b10100000 q
b110110100 f
b110011000 Z
1"
#2720000
0"
b10000111 b"
#2730000
b110011100 Z
b110110000 f
b10100100 q
b1011 N
1"
#2740000
0"
b10001000 b"
#2750000
b1100 N
b10101000 q
b110101100 f
b110100000 Z
1"
#2760000
0"
b10001001 b"
#2770000
b110100100 Z
b110101000 f
b10101100 q
b1101 N
1"
#2780000
0"
b10001010 b"
#2790000
b1110 N
b10110000 q
b110100100 f
b110101000 Z
1"
#2800000
0"
b10001011 b"
#2810000
b110101100 Z
b110100000 f
b10110100 q
b1111 N
1"
#2820000
0"
b10001100 b"
#2830000
b10000 N
b10111000 q
b110011100 f
b110110000 Z
1"
#2840000
0"
b10001101 b"
#2850000
b110110100 Z
b110011000 f
b10111100 q
b10001 N
1"
#2860000
0"
b10001110 b"
#2870000
b10010 N
b11000000 q
b110010100 f
b110111000 Z
1"
#2880000
0"
b10001111 b"
#2890000
b110111100 Z
b110010000 f
b11000100 q
b10011 N
1"
#2900000
0"
b10010000 b"
#2910000
b10100 N
b11001000 q
b110001100 f
b111000000 Z
1"
#2920000
0"
b10010001 b"
#2930000
b111000100 Z
b110001000 f
b11001100 q
b10101 N
1"
#2940000
0"
b10010010 b"
#2950000
b10110 N
b11010000 q
b110000100 f
b111001000 Z
1"
#2960000
0"
b10010011 b"
#2970000
b111001100 Z
b110000000 f
b11010100 q
b10111 N
1"
#2980000
0"
b10010100 b"
#2990000
b11000 N
b11011000 q
1c
b101111100 f
b111010000 Z
1"
#3000000
0"
b10010101 b"
#3010000
b111010100 Z
b101111000 f
b11011100 q
b11001 N
1"
#3020000
0"
b10010110 b"
#3030000
b11010 N
b11100000 q
b101110100 f
b111011000 Z
1"
#3040000
0"
b10010111 b"
#3050000
b111011100 Z
b101110000 f
b11100100 q
b11011 N
1"
#3060000
0"
b10011000 b"
#3070000
b11100 N
b11101000 q
b101101100 f
b111100000 Z
1"
#3080000
0"
b10011001 b"
#3090000
b111100100 Z
b101101000 f
b11101100 q
b11101 N
1"
#3100000
0"
b10011010 b"
#3110000
b11110 N
b11110000 q
b101100100 f
b111101000 Z
1"
#3120000
0"
b10011011 b"
#3130000
b111101100 Z
b101100000 f
b11110100 q
b1111 F
b11111 G
b0 N
1"
#3140000
0"
b10011100 b"
#3150000
b1 N
b11111000 q
b101011100 f
b111110000 Z
1"
#3160000
0"
b10011101 b"
#3170000
b111110100 Z
b101011000 f
b11111100 q
b10 N
1"
#3180000
0"
b10011110 b"
#3190000
b11 N
b100000000 q
b101010100 f
b111111000 Z
1"
#3200000
0"
b10011111 b"
#3210000
b111111100 Z
b101010000 f
b100000100 q
b100 N
1"
#3220000
0"
b10100000 b"
#3230000
b101 N
b100001000 q
b101001100 f
b1000000000 Z
1"
#3240000
0"
b10100001 b"
#3250000
b1000000100 Z
b101001000 f
b100001100 q
b110 N
1"
#3260000
0"
b10100010 b"
#3270000
b111 N
b100010000 q
b101000100 f
b1000001000 Z
1"
#3280000
0"
b10100011 b"
#3290000
b1000001100 Z
b101000000 f
b100010100 q
b1000 N
1"
#3300000
0"
b10100100 b"
#3310000
b1001 N
b100011000 q
b100111100 f
b1000010000 Z
1"
#3320000
0"
b10100101 b"
#3330000
b1000010100 Z
b100111000 f
b100011100 q
b1010 N
1"
#3340000
0"
b10100110 b"
#3350000
b1011 N
b100100000 q
b100110100 f
b1000011000 Z
1"
#3360000
0"
b10100111 b"
#3370000
b1000011100 Z
b100110000 f
b100100100 q
b1100 N
1"
#3380000
0"
b10101000 b"
#3390000
b1101 N
b100101000 q
b100101100 f
b1000100000 Z
1"
#3400000
0"
b10101001 b"
#3410000
b1000100100 Z
b100101000 f
b100101100 q
b1110 N
1"
#3420000
0"
b10101010 b"
#3430000
b1111 N
b100110000 q
b100100100 f
b1000101000 Z
1"
#3440000
0"
b10101011 b"
#3450000
b1000101100 Z
b100100000 f
b100110100 q
b10000 N
1"
#3460000
0"
b10101100 b"
#3470000
b10001 N
b100111000 q
b100011100 f
b1000110000 Z
1"
#3480000
0"
b10101101 b"
#3490000
b1000110100 Z
b100011000 f
b100111100 q
b10010 N
1"
#3500000
0"
b10101110 b"
#3510000
b10011 N
b101000000 q
b100010100 f
b1000111000 Z
1"
#3520000
0"
b10101111 b"
#3530000
b1000111100 Z
b100010000 f
b101000100 q
b10100 N
1"
#3540000
0"
b10110000 b"
#3550000
b10101 N
b101001000 q
b100001100 f
b1001000000 Z
1"
#3560000
0"
b10110001 b"
#3570000
b1001000100 Z
b100001000 f
b101001100 q
b10110 N
1"
#3580000
0"
b10110010 b"
#3590000
b10111 N
b101010000 q
b100000100 f
b1001001000 Z
1"
#3600000
0"
b10110011 b"
#3610000
b1001001100 Z
b100000000 f
b101010100 q
b11000 N
1"
#3620000
0"
b10110100 b"
#3630000
b11001 N
b101011000 q
b11111100 f
b1001010000 Z
1"
#3640000
0"
b10110101 b"
#3650000
b1001010100 Z
b11111000 f
b101011100 q
b11010 N
1"
#3660000
0"
b10110110 b"
#3670000
b11011 N
b101100000 q
b11110100 f
b1001011000 Z
1"
#3680000
0"
b10110111 b"
#3690000
b1001011100 Z
b11110000 f
b101100100 q
b11100 N
1"
#3700000
0"
b10111000 b"
#3710000
b11101 N
b101101000 q
b11101100 f
b1001100000 Z
1"
#3720000
0"
b10111001 b"
#3730000
b1001100100 Z
b11101000 f
b101101100 q
b11110 N
1"
#3740000
0"
b10111010 b"
#3750000
b10010 F
b111111 G
b0 N
b101110000 q
b11100100 f
b1001101000 Z
1"
#3760000
0"
b10111011 b"
#3770000
b1001101100 Z
b11100000 f
b101110100 q
b1 N
1"
#3780000
0"
b10111100 b"
#3790000
b10 N
b101111000 q
b11011100 f
b1001110000 Z
1"
#3800000
0"
b10111101 b"
#3810000
b1001110100 Z
b11011000 f
b101111100 q
b11 N
1"
#3820000
0"
b10111110 b"
#3830000
b100 N
b110000000 q
b11010100 f
b1001111000 Z
1"
#3840000
0"
b10111111 b"
#3850000
b1001111100 Z
b11010000 f
b110000100 q
b101 N
1"
#3860000
0"
b11000000 b"
#3870000
b110 N
b110001000 q
b11001100 f
b1010000000 Z
1"
#3880000
0"
b11000001 b"
#3890000
b1010000100 Z
b11001000 f
b110001100 q
b111 N
1"
#3900000
0"
b11000010 b"
#3910000
b1000 N
b110010000 q
b11000100 f
b1010001000 Z
1"
#3920000
0"
b11000011 b"
#3930000
b1010001100 Z
b11000000 f
b110010100 q
b1001 N
1"
#3940000
0"
b11000100 b"
#3950000
b1010 N
b110011000 q
b10111100 f
b1010010000 Z
1"
#3960000
0"
b11000101 b"
#3970000
b1010010100 Z
b10111000 f
b110011100 q
b1011 N
1"
#3980000
0"
b11000110 b"
#3990000
b1100 N
b110100000 q
b10110100 f
b1010011000 Z
1"
#4000000
0"
b11000111 b"
#4010000
b1010011100 Z
b10110000 f
b110100100 q
b1101 N
1"
#4020000
0"
b11001000 b"
#4030000
b1110 N
b110101000 q
b10101100 f
b1010100000 Z
1"
#4040000
0"
b11001001 b"
#4050000
b1010100100 Z
b10101000 f
b110101100 q
b1111 N
1"
#4060000
0"
b11001010 b"
#4070000
b10000 N
b110110000 q
b10100100 f
b1010101000 Z
1"
#4080000
0"
b11001011 b"
#4090000
b1010101100 Z
b10100000 f
b110110100 q
b10001 N
1"
#4100000
0"
b11001100 b"
#4110000
b10010 N
b110111000 q
b10011100 f
b1010110000 Z
1"
#4120000
0"
b11001101 b"
